# response derivatives works

    Code
      print(yd)
    Output
      # A tibble: 50 x 9
          .row .focal .derivative .lower_ci .upper_ci      x2    x0    x1    x3
         <int> <chr>        <dbl>     <dbl>     <dbl>   <dbl> <dbl> <dbl> <dbl>
       1     1 x2            19.8      16.2      23.2 0.00127 0.480 0.478 0.537
       2     2 x2            24.9      19.1      30.0 0.0216  0.480 0.478 0.537
       3     3 x2            31.5      23.6      39.2 0.0420  0.480 0.478 0.537
       4     4 x2            40.4      30.7      50.6 0.0624  0.480 0.478 0.537
       5     5 x2            51.7      40.8      63.7 0.0828  0.480 0.478 0.537
       6     6 x2            64.8      53.3      77.8 0.103   0.480 0.478 0.537
       7     7 x2            78.4      66.7      91.8 0.123   0.480 0.478 0.537
       8     8 x2            88.7      75.0     104.  0.144   0.480 0.478 0.537
       9     9 x2            91.0      74.1     110.  0.164   0.480 0.478 0.537
      10    10 x2            80.8      62.3     102.  0.185   0.480 0.478 0.537
      # i 40 more rows
