# confint.fderiv example output

    # A tibble: 100 x 4
       term   lower   est upper
       <chr>  <dbl> <dbl> <dbl>
     1 s(x0)  2.18  4.73   7.28
     2 s(x0)  1.78  4.40   7.01
     3 s(x0)  1.42  4.04   6.66
     4 s(x0)  1.07  3.65   6.22
     5 s(x0)  0.670 3.22   5.76
     6 s(x0)  0.134 2.73   5.32
     7 s(x0) -0.491 2.17   4.82
     8 s(x0) -1.14  1.53   4.20
     9 s(x0) -1.79  0.838  3.47
    10 s(x0) -2.48  0.111  2.71
    # i 90 more rows

---

    # A tibble: 25 x 4
       term   lower      est  upper
       <chr>  <dbl>    <dbl>  <dbl>
     1 s(x2)  -7.96   0.0645   8.09
     2 s(x2) -24.9  -15.9     -6.78
     3 s(x2) -37.8  -28.6    -19.3 
     4 s(x2) -45.3  -36.8    -28.4 
     5 s(x2) -47.9  -40.3    -32.7 
     6 s(x2) -47.4  -39.5    -31.6 
     7 s(x2) -44.7  -35.7    -26.7 
     8 s(x2) -39.9  -30.4    -21.0 
     9 s(x2) -33.5  -24.6    -15.8 
    10 s(x2) -26.9  -19.1    -11.2 
    # i 15 more rows
