…
> 
> ### ** Examples
> 
> 
> load_mgcv()
> ## Don't show: 
> op <- options(pillar.sigfig = 3, cli.unicode = FALSE)
> ## End(Don't show)
> df <- data_sim("eg1", seed = 1)
> df <- df[, c("y","x0","x1","x2","x3")]
> m <-  gam(y ~ s(x0) + s(x1) + s(x2) + s(x3), data = df, method = "REML")
> 
> ##
> add_fitted(df, m)
# A tibble: 400 x 6
         y     x0     x1     x2    x3 .value
     <dbl>  <dbl>  <dbl>  <dbl> <dbl>  <dbl>
 1  3.34   0.266  0.659  0.859  0.367   5.90
 2 -0.0758 0.372  0.185  0.0344 0.741   3.15
 3 10.7    0.573  0.954  0.971  0.934   8.28
 4  8.73   0.908  0.898  0.745  0.673   8.65
 5 15.0    0.202  0.944  0.273  0.701  15.7 
 6  7.67   0.898  0.724  0.677  0.848   8.38
 7  7.58   0.945  0.370  0.348  0.706   7.84
 8  8.51   0.661  0.781  0.947  0.859   6.74
 9 10.6    0.629  0.0111 0.339  0.446   9.14
10  3.72   0.0618 0.940  0.0317 0.677   7.04
# ... with 390 more rows
> 
> ## with type = "terms" or "iterms"
> add_fitted(df, m, type = "terms")
# A tibble: 400 x 10
         y     x0     x1     x2    x3 .constant `.s(x0)` .s(x1~1 .s(x2~2 .s(x3~3
     <dbl>  <dbl>  <dbl>  <dbl> <dbl>     <dbl>    <dbl>   <dbl>   <dbl>   <dbl>
 1  3.34   0.266  0.659  0.859  0.367      7.94   0.175    0.559  -2.81   0.0351
 2 -0.0758 0.372  0.185  0.0344 0.741      7.94   0.435   -1.92   -3.23  -0.0687
 3 10.7    0.573  0.954  0.971  0.934      7.94   0.593    3.35   -3.47  -0.122 
 4  8.73   0.908  0.898  0.745  0.673      7.94  -0.812    2.77   -1.19  -0.0498
 5 15.0    0.202  0.944  0.273  0.701      7.94  -0.0589   3.23    4.63  -0.0576
 6  7.67   0.898  0.724  0.677  0.848      7.94  -0.745    1.15    0.146 -0.0981
 7  7.58   0.945  0.370  0.348  0.706      7.94  -1.07    -1.31    2.34  -0.0589
 8  8.51   0.661  0.781  0.947  0.859      7.94   0.434    1.67   -3.20  -0.101 
 9 10.6    0.629  0.0111 0.339  0.446      7.94   0.512   -1.95    2.63   0.0132
10  3.72   0.0618 0.940  0.0317 0.677      7.94  -0.695    3.20   -3.35  -0.0508
# ... with 390 more rows, and abbreviated variable names 1: `.s(x1)`,
#   2: `.s(x2)`, 3: `.s(x3)`
…
> ### Aliases: add_partial_residuals add_partial_residuals.gam
> 
> ### ** Examples
> 
> load_mgcv()
> ## Don't show: 
> op <- options(pillar.sigfig = 3, cli.unicode = FALSE)
> ## End(Don't show)
> df <- data_sim("eg1", seed = 1)
> df <- df[, c("y","x0","x1","x2","x3")]
> m <-  gam(y ~ s(x0) + s(x1) + s(x2) + s(x3), data = df, method = 'REML')
> 
> ## add partial residuals
> add_partial_residuals(df, m)
# A tibble: 400 x 9
         y     x0     x1     x2    x3 `s(x0)` `s(x1)` `s(x2)` `s(x3)`
     <dbl>  <dbl>  <dbl>  <dbl> <dbl>   <dbl>   <dbl>   <dbl>   <dbl>
 1  3.34   0.266  0.659  0.859  0.367  -2.38   -2.00   -5.36  -2.52  
 2 -0.0758 0.372  0.185  0.0344 0.741  -2.79   -5.15   -6.45  -3.29  
 3 10.7    0.573  0.954  0.971  0.934   2.99    5.75   -1.07   2.28  
 4  8.73   0.908  0.898  0.745  0.673  -0.734   2.84   -1.11   0.0287
 5 15.0    0.202  0.944  0.273  0.701  -0.752   2.54    3.94  -0.750 
 6  7.67   0.898  0.724  0.677  0.848  -1.46    0.432  -0.567 -0.812 
 7  7.58   0.945  0.370  0.348  0.706  -1.33   -1.57    2.08  -0.318 
 8  8.51   0.661  0.781  0.947  0.859   2.21    3.44   -1.42   1.68  
 9 10.6    0.629  0.0111 0.339  0.446   2.01   -0.445   4.13   1.51  
10  3.72   0.0618 0.940  0.0317 0.677  -4.02   -0.123  -6.67  -3.37  
# ... with 390 more rows
> 
> ## add partial residuals for selected smooths
> add_partial_residuals(df, m, select = "s(x0)")
# A tibble: 400 x 6
         y     x0     x1     x2    x3 `s(x0)`
     <dbl>  <dbl>  <dbl>  <dbl> <dbl>   <dbl>
 1  3.34   0.266  0.659  0.859  0.367  -2.38 
 2 -0.0758 0.372  0.185  0.0344 0.741  -2.79 
 3 10.7    0.573  0.954  0.971  0.934   2.99 
 4  8.73   0.908  0.898  0.745  0.673  -0.734
 5 15.0    0.202  0.944  0.273  0.701  -0.752
 6  7.67   0.898  0.724  0.677  0.848  -1.46 
 7  7.58   0.945  0.370  0.348  0.706  -1.33 
 8  8.51   0.661  0.781  0.947  0.859   2.21 
 9 10.6    0.629  0.0111 0.339  0.446   2.01 
10  3.72   0.0618 0.940  0.0317 0.677  -4.02 
# ... with 390 more rows
…
> 
> ### ** Examples
> 
> load_mgcv()
> ## Don't show: 
> set.seed(1)
> op <- options(pillar.sigfig = 3, cli.unicode = FALSE)
> ## End(Don't show)
> df <- data_sim("eg1", seed = 1)
> df <- df[, c("y","x0","x1","x2","x3")]
> m <-  gam(y ~ s(x0) + s(x1) + s(x2) + s(x3), data = df, method = 'REML')
> 
> ##
> add_residuals(df, m)
# A tibble: 400 x 6
         y     x0     x1     x2    x3 .residual
     <dbl>  <dbl>  <dbl>  <dbl> <dbl>     <dbl>
 1  3.34   0.266  0.659  0.859  0.367   -2.56  
 2 -0.0758 0.372  0.185  0.0344 0.741   -3.22  
 3 10.7    0.573  0.954  0.971  0.934    2.40  
 4  8.73   0.908  0.898  0.745  0.673    0.0785
 5 15.0    0.202  0.944  0.273  0.701   -0.693 
 6  7.67   0.898  0.724  0.677  0.848   -0.714 
 7  7.58   0.945  0.370  0.348  0.706   -0.259 
 8  8.51   0.661  0.781  0.947  0.859    1.78  
 9 10.6    0.629  0.0111 0.339  0.446    1.50  
10  3.72   0.0618 0.940  0.0317 0.677   -3.32  
# ... with 390 more rows
…
+   v <- (1 - coverage) / 2
+   q <- quantile(x, prob = c(0 + v, 1 - v), type = 8)
+   seq(q[1], q[2], length = n)
+ }
> new_data <- sapply(dat[c("x0", "x1", "x2", "x3")], middle)
> new_data <- data.frame(new_data)
> ## first derivatives of all smooths...
> fd <- fderiv(mod, newdata = new_data)
Warning: `fderiv()` was deprecated in gratia 0.7.0.
i Please use `derivatives()` instead.
> 
> ## point-wise interval
> ci <- confint(fd, type = "confidence")
> ci
# A tibble: 100 x 4
   term    lower   est upper
   <chr>   <dbl> <dbl> <dbl>
 1 s(x0)  1.7     4.1    6.6
 2 s(x0)  1.3     3.8    6.3
 3 s(x0)  0.99    3.5    6.0
 4 s(x0)  0.68    3.1    5.6
 5 s(x0)  0.37    2.8    5.2
 6 s(x0)  0.0049  2.4    4.8
 7 s(x0) -0.40    2.0    4.5
 8 s(x0) -0.79    1.7    4.2
 9 s(x0) -1.1     1.3    3.8
10 s(x0) -1.4     0.99   3.4
# ... with 90 more rows
…
> 
> # new data to evaluate the smooths at, say over the middle 50% of range
> # of each covariate
> middle <- function(x, n = 50, coverage = 0.5) {
+   v <- (1 - coverage) / 2
+   q <- quantile(x, prob = c(0 + v, 1 - v), type = 8)
+   seq(q[1], q[2], length = n)
+ }
> new_data <- sapply(dat[c("x0", "x1", "x2", "x3")], middle)
> new_data <- data.frame(new_data)
> 
> ## point-wise interval for smooth of x2
> ci <- confint(mod, parm = "s(x2)", type = "confidence", data = new_data)
> ci
# A tibble: 50 x 9
   smooth type  by       x2   est    se  crit lower upper
   <chr>  <chr> <chr> <dbl> <dbl> <dbl> <dbl> <dbl> <dbl>
 1 s(x2)  TPRS  <NA>   0.26   5.3  0.18   2.0   5.0   5.7
 2 s(x2)  TPRS  <NA>   0.27   5.1  0.18   2.0   4.8   5.5
 3 s(x2)  TPRS  <NA>   0.28   4.9  0.18   2.0   4.6   5.3
 4 s(x2)  TPRS  <NA>   0.29   4.6  0.18   2.0   4.3   5.0
 5 s(x2)  TPRS  <NA>   0.30   4.3  0.19   2.0   3.9   4.7
 6 s(x2)  TPRS  <NA>   0.32   4.0  0.19   2.0   3.6   4.3
 7 s(x2)  TPRS  <NA>   0.33   3.6  0.20   2.0   3.2   4.0
 8 s(x2)  TPRS  <NA>   0.34   3.2  0.20   2.0   2.9   3.6
 9 s(x2)  TPRS  <NA>   0.35   2.9  0.20   2.0   2.5   3.3
10 s(x2)  TPRS  <NA>   0.36   2.5  0.19   2.0   2.1   2.9
# ... with 40 more rows
> 
> ## simultaneous interval for smooth of x2
> ## Don't show: 
> set.seed(42)
> ## End(Don't show)
> si <- confint(mod, parm = "s(x2)", data = new_data,
+               type = "simultaneous", nsim = 3000, ncores = 2)
> si
# A tibble: 50 x 9
   smooth type  by       x2   est    se  crit lower upper
   <chr>  <chr> <chr> <dbl> <dbl> <dbl> <dbl> <dbl> <dbl>
 1 s(x2)  TPRS  <NA>   0.26   5.3  0.18   2.6   4.8   5.8
 2 s(x2)  TPRS  <NA>   0.27   5.1  0.18   2.6   4.7   5.6
 3 s(x2)  TPRS  <NA>   0.28   4.9  0.18   2.6   4.4   5.4
 4 s(x2)  TPRS  <NA>   0.29   4.6  0.18   2.6   4.1   5.1
 5 s(x2)  TPRS  <NA>   0.30   4.3  0.19   2.6   3.8   4.8
 6 s(x2)  TPRS  <NA>   0.32   4.0  0.19   2.6   3.5   4.5
 7 s(x2)  TPRS  <NA>   0.33   3.6  0.20   2.6   3.1   4.1
 8 s(x2)  TPRS  <NA>   0.34   3.2  0.20   2.6   2.7   3.8
 9 s(x2)  TPRS  <NA>   0.35   2.9  0.20   2.6   2.4   3.4
10 s(x2)  TPRS  <NA>   0.36   2.5  0.19   2.6   2.0   3.0
# ... with 40 more rows
…
> 
> flush(stderr()); flush(stdout())
> 
> ### Name: data_sim
> ### Title: Simulate example data for fitting GAMs
> ### Aliases: data_sim
> 
> ### ** Examples
> 
> ## Don't show: 
> set.seed(1)
> op <- options(digits = 5, cli.unicode = FALSE)
> ## End(Don't show)
> data_sim("eg1")
# A tibble: 400 x 10
         y     x0     x1     x2    x3     f    f0    f1        f2    f3
     <dbl>  <dbl>  <dbl>  <dbl> <dbl> <dbl> <dbl> <dbl>     <dbl> <dbl>
 1  3.34   0.266  0.659  0.859  0.367  5.51 1.48   3.74 0.298         0
 2 -0.0758 0.372  0.185  0.0344 0.741  3.58 1.84   1.45 0.288         0
 3 10.7    0.573  0.954  0.971  0.934  8.69 1.95   6.74 0.0000861     0
 4  8.73   0.908  0.898  0.745  0.673  8.75 0.569  6.02 2.16          0
 5 15.0    0.202  0.944  0.273  0.701 16.2  1.18   6.60 8.40          0
 6  7.67   0.898  0.724  0.677  0.848  8.03 0.628  4.25 3.15          0
 7  7.58   0.945  0.370  0.348  0.706  8.44 0.346  2.10 5.99          0
 8  8.51   0.661  0.781  0.947  0.859  6.52 1.75   4.77 0.00243       0
 9 10.6    0.629  0.0111 0.339  0.446  9.19 1.84   1.02 6.33          0
10  3.72   0.0618 0.940  0.0317 0.677  7.17 0.386  6.56 0.231         0
# ... with 390 more rows
…
> ###   derivatives.gam
> 
> ### ** Examples
> 
> 
> load_mgcv()
> ## Don't show: 
> op <- options(pillar.sigfig = 3, cli.unicode = FALSE)
> ## End(Don't show)
> dat <- data_sim("eg1", n = 400, dist = "normal", scale = 2, seed = 42)
> mod <- gam(y ~ s(x0) + s(x1) + s(x2) + s(x3), data = dat, method = "REML")
> 
> ## first derivatives of all smooths using central finite differences
> derivatives(mod, type = "central")
# A tibble: 800 x 10
   smooth var   by_var fs_var     data derivative    se  crit lower upper
   <chr>  <chr> <chr>  <chr>     <dbl>      <dbl> <dbl> <dbl> <dbl> <dbl>
 1 s(x0)  x0    <NA>   <NA>   0.000239       7.41  3.33  1.96 0.874  13.9
 2 s(x0)  x0    <NA>   <NA>   0.00525        7.41  3.33  1.96 0.875  13.9
 3 s(x0)  x0    <NA>   <NA>   0.0103         7.40  3.33  1.96 0.884  13.9
 4 s(x0)  x0    <NA>   <NA>   0.0153         7.40  3.31  1.96 0.902  13.9
 5 s(x0)  x0    <NA>   <NA>   0.0203         7.39  3.30  1.96 0.929  13.8
 6 s(x0)  x0    <NA>   <NA>   0.0253         7.38  3.27  1.96 0.965  13.8
 7 s(x0)  x0    <NA>   <NA>   0.0303         7.36  3.24  1.96 1.01   13.7
 8 s(x0)  x0    <NA>   <NA>   0.0353         7.34  3.20  1.96 1.07   13.6
 9 s(x0)  x0    <NA>   <NA>   0.0403         7.32  3.15  1.96 1.14   13.5
10 s(x0)  x0    <NA>   <NA>   0.0453         7.29  3.10  1.96 1.21   13.4
# ... with 790 more rows
> 
> ## derivatives for a selected smooth
> derivatives(mod, type = "central", term = "s(x1)")
# A tibble: 200 x 10
   smooth var   by_var fs_var     data derivative    se  crit lower upper
   <chr>  <chr> <chr>  <chr>     <dbl>      <dbl> <dbl> <dbl> <dbl> <dbl>
 1 s(x1)  x1    <NA>   <NA>   0.000405     -0.907  3.12  1.96 -7.02  5.20
 2 s(x1)  x1    <NA>   <NA>   0.00541      -0.907  3.12  1.96 -7.02  5.20
 3 s(x1)  x1    <NA>   <NA>   0.0104       -0.906  3.11  1.96 -7.01  5.20
 4 s(x1)  x1    <NA>   <NA>   0.0154       -0.903  3.11  1.96 -6.99  5.19
 5 s(x1)  x1    <NA>   <NA>   0.0204       -0.898  3.10  1.96 -6.97  5.17
 6 s(x1)  x1    <NA>   <NA>   0.0254       -0.891  3.08  1.96 -6.93  5.15
 7 s(x1)  x1    <NA>   <NA>   0.0304       -0.880  3.06  1.96 -6.88  5.12
 8 s(x1)  x1    <NA>   <NA>   0.0354       -0.867  3.04  1.96 -6.82  5.08
 9 s(x1)  x1    <NA>   <NA>   0.0404       -0.850  3.00  1.96 -6.74  5.04
10 s(x1)  x1    <NA>   <NA>   0.0454       -0.829  2.96  1.96 -6.64  4.98
# ... with 190 more rows
> ## or via a partial match
> derivatives(mod, type = "central", term = "x1", partial_match = TRUE)
# A tibble: 200 x 10
   smooth var   by_var fs_var     data derivative    se  crit lower upper
   <chr>  <chr> <chr>  <chr>     <dbl>      <dbl> <dbl> <dbl> <dbl> <dbl>
 1 s(x1)  x1    <NA>   <NA>   0.000405     -0.907  3.12  1.96 -7.02  5.20
 2 s(x1)  x1    <NA>   <NA>   0.00541      -0.907  3.12  1.96 -7.02  5.20
 3 s(x1)  x1    <NA>   <NA>   0.0104       -0.906  3.11  1.96 -7.01  5.20
 4 s(x1)  x1    <NA>   <NA>   0.0154       -0.903  3.11  1.96 -6.99  5.19
 5 s(x1)  x1    <NA>   <NA>   0.0204       -0.898  3.10  1.96 -6.97  5.17
 6 s(x1)  x1    <NA>   <NA>   0.0254       -0.891  3.08  1.96 -6.93  5.15
 7 s(x1)  x1    <NA>   <NA>   0.0304       -0.880  3.06  1.96 -6.88  5.12
 8 s(x1)  x1    <NA>   <NA>   0.0354       -0.867  3.04  1.96 -6.82  5.08
 9 s(x1)  x1    <NA>   <NA>   0.0404       -0.850  3.00  1.96 -6.74  5.04
10 s(x1)  x1    <NA>   <NA>   0.0454       -0.829  2.96  1.96 -6.64  4.98
# ... with 190 more rows
…
> ### Aliases: difference_smooths difference_smooths.gam
> 
> ### ** Examples
> 
> 
> load_mgcv()
> ## Don't show: 
> op <- options(digits = 3, cli.unicode = FALSE)
> ## End(Don't show)
> df <- data_sim("eg4", seed = 42)
> m <- gam(y ~ fac + s(x2, by = fac) + s(x0), data = df, method = "REML")
> 
> sm_dif <- difference_smooths(m, smooth = "s(x2)")
> sm_dif
# A tibble: 300 x 9
   smooth by    level_1 level_2  diff    se    lower upper      x2
   <chr>  <chr> <chr>   <chr>   <dbl> <dbl>    <dbl> <dbl>   <dbl>
 1 s(x2)  fac   1       2       0.386 0.618 -0.824    1.60 0.00359
 2 s(x2)  fac   1       2       0.479 0.574 -0.646    1.60 0.0136 
 3 s(x2)  fac   1       2       0.572 0.534 -0.474    1.62 0.0237 
 4 s(x2)  fac   1       2       0.665 0.497 -0.308    1.64 0.0338 
 5 s(x2)  fac   1       2       0.758 0.464 -0.151    1.67 0.0438 
 6 s(x2)  fac   1       2       0.850 0.435 -0.00342  1.70 0.0539 
 7 s(x2)  fac   1       2       0.941 0.412  0.134    1.75 0.0639 
 8 s(x2)  fac   1       2       1.03  0.393  0.262    1.80 0.0740 
 9 s(x2)  fac   1       2       1.12  0.378  0.380    1.86 0.0841 
10 s(x2)  fac   1       2       1.21  0.367  0.489    1.93 0.0941 
# ... with 290 more rows
…
> ### Title: Evaluate a smooth
> ### Aliases: evaluate_smooth evaluate_smooth.gam evaluate_smooth.gamm
> ###   evaluate_smooth.list
> 
> ### ** Examples
> 
> load_mgcv()
> ## Don't show: 
> op <- options(cli.unicode = FALSE, pillar.sigfig = 2)
> ## End(Don't show)
> dat <- data_sim("eg1", n = 500, dist = "normal", scale = 1, seed = 2)
> m1 <- gam(y ~ s(x0) + s(x1) + s(x2) + s(x3), data = dat, method = "REML")
> 
> evaluate_smooth(m1, "s(x1)")
# A tibble: 100 x 5
   smooth by_variable     x1   est    se
   <chr>  <fct>        <dbl> <dbl> <dbl>
 1 s(x1)  <NA>        0.0025  -2.1 0.17 
 2 s(x1)  <NA>        0.013   -2.1 0.15 
 3 s(x1)  <NA>        0.023   -2.1 0.14 
 4 s(x1)  <NA>        0.033   -2.0 0.13 
 5 s(x1)  <NA>        0.043   -2.0 0.12 
 6 s(x1)  <NA>        0.053   -2.0 0.11 
 7 s(x1)  <NA>        0.063   -2.0 0.11 
 8 s(x1)  <NA>        0.073   -2.0 0.10 
 9 s(x1)  <NA>        0.083   -2.0 0.10 
10 s(x1)  <NA>        0.093   -2.0 0.097
# ... with 90 more rows
> 
> ## 2d example
> dat <- data_sim("eg2", n = 1000, dist = "normal", scale = 1, seed = 2)
> m2 <- gam(y ~ s(x, z, k = 30), data = dat, method = "REML")
> 
> evaluate_smooth(m2, "s(x,z)", n = 50)
# A tibble: 2,500 x 6
   smooth by_variable       x       z   est    se
   <chr>  <fct>         <dbl>   <dbl> <dbl> <dbl>
 1 s(x,z) <NA>        0.00066 0.00076 0.088  0.19
 2 s(x,z) <NA>        0.021   0.00076 0.097  0.18
 3 s(x,z) <NA>        0.041   0.00076 0.11   0.18
 4 s(x,z) <NA>        0.062   0.00076 0.12   0.17
 5 s(x,z) <NA>        0.082   0.00076 0.13   0.16
 6 s(x,z) <NA>        0.10    0.00076 0.14   0.16
 7 s(x,z) <NA>        0.12    0.00076 0.14   0.15
 8 s(x,z) <NA>        0.14    0.00076 0.15   0.15
 9 s(x,z) <NA>        0.16    0.00076 0.16   0.14
10 s(x,z) <NA>        0.18    0.00076 0.17   0.14
# ... with 2,490 more rows
…
> ### Name: fitted_values
> ### Title: Generate fitted values from a estimated GAM
> ### Aliases: fitted_values fitted_values.gam
> 
> ### ** Examples
> 
> load_mgcv()
> ## Don't show: 
> op <- options(cli.unicode = FALSE, digits = 6)
> ## End(Don't show)
> sim_df <- data_sim("eg1", n = 400, dist = "normal", scale = 2, seed = 2)
> m <- gam(y ~ s(x0) + s(x1) + s(x2) + s(x3), data = sim_df, method = "REML")
> fv <- fitted_values(m)
> fv
# A tibble: 400 x 8
      x0     x1      x2    x3 fitted    se lower upper
   <dbl>  <dbl>   <dbl> <dbl>  <dbl> <dbl> <dbl> <dbl>
 1 0.185 0.617  0.415   0.132   8.74 0.355  8.04  9.43
 2 0.702 0.569  0.531   0.365   7.63 0.338  6.96  8.29
 3 0.573 0.154  0.00325 0.455   3.12 0.592  1.96  4.28
 4 0.168 0.0348 0.252   0.537  11.1  0.402 10.3  11.9 
 5 0.944 0.998  0.155   0.185  14.1  0.453 13.2  14.9 
 6 0.943 0.836  0.879   0.449   6.13 0.365  5.42  6.85
 7 0.129 0.587  0.204   0.257  12.5  0.356 11.8  13.2 
 8 0.833 0.339  0.584   0.618   6.25 0.345  5.58  6.93
 9 0.468 0.167  0.804   0.881   4.21 0.372  3.49  4.94
10 0.550 0.807  0.265   0.318  15.5  0.370 14.8  16.3 
# ... with 390 more rows
…
> ## Don't show: 
> set.seed(1)
> op <- options(digits = 4, cli.unicode = FALSE)
> ## End(Don't show)
> ## load mgcv
> load_mgcv()
> 
> ## example data - Gu & Wabha four term model
> df <- data_sim("eg1", n = 400, seed = 42)
> ## fit the model
> m <- gam(y ~ s(x0) + s(x1) + s(x2) + s(x3), data = df, method = 'REML')
> 
> ## extract partial residuals
> partial_residuals(m)
# A tibble: 400 x 4
   `s(x0)` `s(x1)` `s(x2)` `s(x3)`
     <dbl>   <dbl>   <dbl>   <dbl>
 1  -0.353 -1.32    -2.18   0.608 
 2  -0.123  0.501   -1.77   0.961 
 3   1.43   1.52     5.61   0.991 
 4  -1.11  -1.70    -0.888 -0.659 
 5  -2.12  -0.0138  -2.73  -3.01  
 6   1.25  -1.22     3.91   0.0728
 7  -0.522  3.02    -0.820 -1.02  
 8   1.40   0.218    7.06   1.90  
 9   2.80   0.497    7.33   2.50  
10   1.15  -0.227    0.720  0.744 
# ... with 390 more rows
> 
> ## and for a select term
> partial_residuals(m, select = "s(x2)")
# A tibble: 400 x 1
   `s(x2)`
     <dbl>
 1  -2.18 
 2  -1.77 
 3   5.61 
 4  -0.888
 5  -2.73 
 6   3.91 
 7  -0.820
 8   7.06 
 9   7.33 
10   0.720
# ... with 390 more rows
> 
> ## or with partial matching
> partial_residuals(m, select = "x", partial_match = TRUE) # returns all
# A tibble: 400 x 4
   `s(x0)` `s(x1)` `s(x2)` `s(x3)`
     <dbl>   <dbl>   <dbl>   <dbl>
 1  -0.353 -1.32    -2.18   0.608 
 2  -0.123  0.501   -1.77   0.961 
 3   1.43   1.52     5.61   0.991 
 4  -1.11  -1.70    -0.888 -0.659 
 5  -2.12  -0.0138  -2.73  -3.01  
 6   1.25  -1.22     3.91   0.0728
 7  -0.522  3.02    -0.820 -1.02  
 8   1.40   0.218    7.06   1.90  
 9   2.80   0.497    7.33   2.50  
10   1.15  -0.227    0.720  0.744 
# ... with 390 more rows
…
> 
> ### ** Examples
> 
> ## Don't show: 
> op <- options(cli.unicode = FALSE, pillar.sigfig = 3)
> ## End(Don't show)
> load_mgcv()
> dat <- data_sim("eg4", n = 400, seed = 42)
> m <- gam(y ~ s(x0, bs = "cr") + s(x1, bs = "cr") +
+            s(x2, by = fac, bs = "cr"),
+          data = dat, method = "REML")
> 
> # penalties for all smooths
> penalty(m)
# A tibble: 405 x 6
   smooth type  penalty row   col     value
   <chr>  <chr> <chr>   <chr> <chr>   <dbl>
 1 s(x0)  CRS   s(x0)   F1    F1     0.783 
 2 s(x0)  CRS   s(x0)   F1    F2    -0.635 
 3 s(x0)  CRS   s(x0)   F1    F3     0.265 
 4 s(x0)  CRS   s(x0)   F1    F4    -0.0203
 5 s(x0)  CRS   s(x0)   F1    F5     0.0441
 6 s(x0)  CRS   s(x0)   F1    F6     0.0378
 7 s(x0)  CRS   s(x0)   F1    F7     0.0482
 8 s(x0)  CRS   s(x0)   F1    F8     0.0216
 9 s(x0)  CRS   s(x0)   F1    F9     0.0247
10 s(x0)  CRS   s(x0)   F2    F1    -0.635 
# ... with 395 more rows
…
