…
## point-wise interval
ci <- confint(fd, type = "confidence")
ci
#> # A tibble: 100 x 4
#>    term    lower   est upper
#>    <chr>   <dbl> <dbl> <dbl>
#>  1 s(x0)  1.7     4.1    6.6
#>  2 s(x0)  1.3     3.8    6.3
#>  3 s(x0)  0.99    3.5    6.0
#>  4 s(x0)  0.68    3.1    5.6
#>  5 s(x0)  0.37    2.8    5.2
#>  6 s(x0)  0.0049  2.4    4.8
#>  7 s(x0) -0.40    2.0    4.5
#>  8 s(x0) -0.79    1.7    4.2
#>  9 s(x0) -1.1     1.3    3.8
#> 10 s(x0) -1.4     0.99   3.4
#> # i 90 more rows

## simultaneous interval for smooth term of x2
x2_sint <- confint(fd,
  parm = "x2", type = "simultaneous",
  nsim = 10000, ncores = 2
)
# \donttest{
x2_sint
#> # A tibble: 25 x 4
#>    term  lower   est upper
#>    <chr> <dbl> <dbl> <dbl>
#>  1 s(x2)  -24.  -15.  -5.6
#>  2 s(x2)  -35.  -26. -16. 
#>  3 s(x2)  -41.  -33. -24. 
#>  4 s(x2)  -44.  -36. -29. 
#>  5 s(x2)  -44.  -36. -28. 
#>  6 s(x2)  -42.  -34. -25. 
#>  7 s(x2)  -38.  -30. -21. 
#>  8 s(x2)  -33.  -24. -16. 
#>  9 s(x2)  -27.  -19. -11. 
#> 10 s(x2)  -22.  -14.  -5.8
#> # i 15 more rows
…
