Point-wise and simultaneous confidence intervals for smooths — confint.gam • gratia
…
# new data to evaluate the smooths at, say over the middle 50% of range
# of each covariate
middle <- function(x, n = 50, coverage = 0.5) {
  v <- (1 - coverage) / 2
  q <- quantile(x, prob = c(0 + v, 1 - v), type = 8)
  seq(q[1], q[2], length = n)
}
new_data <- sapply(dat[c("x0", "x1", "x2", "x3")], middle)
new_data <- data.frame(new_data)

## point-wise interval for smooth of x2
ci <- confint(mod, parm = "s(x2)", type = "confidence", data = new_data)
ci
#> # A tibble: 50 x 9
#>    .smooth .type .by      x2 .estimate   .se .crit .lower_ci .upper_ci
#>    <chr>   <chr> <chr> <dbl>     <dbl> <dbl> <dbl>     <dbl>     <dbl>
#>  1 s(x2)   TPRS  NA     0.26       5.3  0.18   2.0       5.0       5.7
#>  2 s(x2)   TPRS  NA     0.27       5.1  0.18   2.0       4.8       5.5
#>  3 s(x2)   TPRS  NA     0.28       4.9  0.18   2.0       4.6       5.3
#>  4 s(x2)   TPRS  NA     0.29       4.6  0.18   2.0       4.3       5.0
#>  5 s(x2)   TPRS  NA     0.30       4.3  0.19   2.0       3.9       4.7
#>  6 s(x2)   TPRS  NA     0.32       4.0  0.19   2.0       3.6       4.3
#>  7 s(x2)   TPRS  NA     0.33       3.6  0.20   2.0       3.2       4.0
#>  8 s(x2)   TPRS  NA     0.34       3.2  0.20   2.0       2.9       3.6
#>  9 s(x2)   TPRS  NA     0.35       2.9  0.20   2.0       2.5       3.3
#> 10 s(x2)   TPRS  NA     0.36       2.5  0.19   2.0       2.1       2.9
#> # i 40 more rows
…
