Prepare a data slice through model covariates — data_slice • gratia
…
# simulate some Gaussian data
df <- data_sim("eg1", n = 50, seed = 2)

# fit a GAM with 1 smooth and 1 linear term
m <- gam(y ~ s(x2, k = 7) + x1, data = df, method = "REML")

# Want to predict over f(x2) while holding `x1` at some value.
# Default will use the observation closest to the median for unspecified
# variables.
ds <- data_slice(m, x2 = evenly(x2, n = 50))
ds
#> # A tibble: 50 x 2
#>        x2    x1
#>     <dbl> <dbl>
#>  1 0.0228 0.403
#>  2 0.0424 0.403
#>  3 0.0619 0.403
#>  4 0.0815 0.403
#>  5 0.101  0.403
#>  6 0.121  0.403
#>  7 0.140  0.403
#>  8 0.160  0.403
#>  9 0.179  0.403
#> 10 0.199  0.403
#> # i 40 more rows
…
