Evaluate a smooth — evaluate_smooth • gratia
…
    Examples

load_mgcv()
# \dontshow{
set.seed(2)
op <- options(cli.unicode = FALSE, digits = 5)
# }
dat <- gamSim(1, n = 400, dist = "normal", scale = 2)
#> Gu & Wahba 4 term additive model
m1 <- gam(y ~ s(x0) + s(x1) + s(x2) + s(x3), data = dat, method = "REML")

evaluate_smooth(m1, "s(x1)")
#> # A tibble: 100 x 5
#>    smooth by_variable       x1   est    se
#>    <chr>  <fct>          <dbl> <dbl> <dbl>
#>  1 s(x1)  NA          0.000663 -1.94 0.329
#>  2 s(x1)  NA          0.0108   -1.93 0.312
#>  3 s(x1)  NA          0.0208   -1.92 0.296
#>  4 s(x1)  NA          0.0309   -1.90 0.281
#>  5 s(x1)  NA          0.0410   -1.89 0.267
#>  6 s(x1)  NA          0.0511   -1.87 0.255
#>  7 s(x1)  NA          0.0612   -1.86 0.243
#>  8 s(x1)  NA          0.0713   -1.84 0.234
#>  9 s(x1)  NA          0.0814   -1.83 0.225
#> 10 s(x1)  NA          0.0914   -1.81 0.218
#> # ... with 90 more rows

## 2d example
set.seed(2)
dat <- gamSim(2, n = 1000, dist = "normal", scale = 1)
#> Bivariate smoothing example
m2 <- gam(y ~ s(x, z, k = 30), data = dat$data, method = "REML")

evaluate_smooth(m2, "s(x,z)", n = 100)
#> # A tibble: 10,000 x 6
#>    smooth by_variable        x        z    est    se
#>    <chr>  <fct>          <dbl>    <dbl>  <dbl> <dbl>
#>  1 s(x,z) NA          0.000663 0.000762 0.0881 0.189
#>  2 s(x,z) NA          0.0108   0.000762 0.0922 0.186
#>  3 s(x,z) NA          0.0208   0.000762 0.0965 0.183
#>  4 s(x,z) NA          0.0309   0.000762 0.101  0.180
#>  5 s(x,z) NA          0.0410   0.000762 0.105  0.176
#>  6 s(x,z) NA          0.0511   0.000762 0.110  0.173
#>  7 s(x,z) NA          0.0612   0.000762 0.115  0.170
#>  8 s(x,z) NA          0.0713   0.000762 0.120  0.166
#>  9 s(x,z) NA          0.0814   0.000762 0.125  0.163
#> 10 s(x,z) NA          0.0914   0.000762 0.130  0.160
#> # ... with 9,990 more rows
…
