Draw fitted values from the posterior distribution — fitted_samples • gratia
…
    Author

    Gavin L. Simpson

    Examples

load_mgcv()
dat <- data_sim("eg1", n = 1000, dist = "normal", scale = 2, seed = 2)
m1 <- gam(y ~ s(x0) + s(x1) + s(x2) + s(x3), data = dat, method = "REML")

fs <- fitted_samples(m1, n = 5, seed = 42)
# \donttest{
fs
#> # A tibble: 5,000 x 4
#>     .row .draw .parameter .fitted
#>    <int> <int> <chr>        <dbl>
#>  1     1     1 location      6.34
#>  2     2     1 location      5.08
#>  3     3     1 location      6.84
#>  4     4     1 location      7.71
#>  5     5     1 location      9.23
#>  6     6     1 location      8.03
#>  7     7     1 location      6.19
#>  8     8     1 location      7.28
#>  9     9     1 location     14.0 
#> 10    10     1 location     12.7 
#> # i 4,990 more rows
# }

# can generate own set of draws and use them
drws <- generate_draws(m1, n = 2, seed = 24)
fs2 <- fitted_samples(m1, method = "user", draws = drws)
# \donttest{
fs2
#> # A tibble: 2,000 x 4
#>     .row .draw .parameter .fitted
#>    <int> <int> <chr>        <dbl>
#>  1     1     1 location      6.30
#>  2     2     1 location      5.12
#>  3     3     1 location      7.40
#>  4     4     1 location      7.42
#>  5     5     1 location      9.40
#>  6     6     1 location      8.04
#>  7     7     1 location      5.83
#>  8     8     1 location      7.30
#>  9     9     1 location     14.3 
#> 10    10     1 location     13.1 
#> # i 1,990 more rows
…
