…
## Examples

``` r
load_mgcv()
dat <- data_sim("eg4", n = 400, seed = 42)
m <- gam(
  y ~ s(x0, bs = "cr") + s(x1, bs = "cr") +
    s(x2, by = fac, bs = "cr"),
  data = dat, method = "REML"
)

# penalties for all smooths
penalty(m)
#> # A tibble: 405 x 6
#>    .smooth .type .penalty .row  .col   .value
#>    <chr>   <chr> <chr>    <chr> <chr>   <dbl>
#>  1 s(x0)   CRS   s(x0)    F1    F1     0.783 
#>  2 s(x0)   CRS   s(x0)    F1    F2    -0.635 
#>  3 s(x0)   CRS   s(x0)    F1    F3     0.265 
#>  4 s(x0)   CRS   s(x0)    F1    F4    -0.0203
#>  5 s(x0)   CRS   s(x0)    F1    F5     0.0441
#>  6 s(x0)   CRS   s(x0)    F1    F6     0.0378
#>  7 s(x0)   CRS   s(x0)    F1    F7     0.0482
#>  8 s(x0)   CRS   s(x0)    F1    F8     0.0216
#>  9 s(x0)   CRS   s(x0)    F1    F9     0.0247
#> 10 s(x0)   CRS   s(x0)    F2    F1    -0.635 
#> # i 395 more rows

# for a specific smooth
penalty(m, select = "s(x2):fac1")
#> # A tibble: 81 x 6
#>    .smooth    .type .penalty   .row  .col   .value
#>    <chr>      <chr> <chr>      <chr> <chr>   <dbl>
#>  1 s(x2):fac1 CRS   s(x2):fac1 F1    F1     1.66  
#>  2 s(x2):fac1 CRS   s(x2):fac1 F1    F2    -0.755 
#>  3 s(x2):fac1 CRS   s(x2):fac1 F1    F3     0.430 
#>  4 s(x2):fac1 CRS   s(x2):fac1 F1    F4     0.0846
#>  5 s(x2):fac1 CRS   s(x2):fac1 F1    F5     0.192 
#>  6 s(x2):fac1 CRS   s(x2):fac1 F1    F6     0.152 
#>  7 s(x2):fac1 CRS   s(x2):fac1 F1    F7     0.188 
#>  8 s(x2):fac1 CRS   s(x2):fac1 F1    F8     0.164 
#>  9 s(x2):fac1 CRS   s(x2):fac1 F1    F9     0.0597
#> 10 s(x2):fac1 CRS   s(x2):fac1 F2    F1    -0.755 
#> # i 71 more rows
```
