Rootograms to assess goodness of model fit — rootogram • gratia
…
    Kleiber, C., Zeileis, A., (2016) Visualizing Count Data
Regressions Using Rootograms. Am. Stat. 70, 296–303.
doi:10.1080/00031305.2016.1173590

    Examples

load_mgcv()
df <- data_sim("eg1", n = 1000, dist = "poisson", scale = 0.1, seed = 6)

# A poisson example
m <- gam(y ~ s(x0, bs = "cr") + s(x1, bs = "cr") + s(x2, bs = "cr") +
  s(x3, bs = "cr"), family = poisson(), data = df, method = "REML")
rg <- rootogram(m)
rg
#> # A tibble: 21 x 3
#>     .bin .observed   .fitted
#>    <dbl>     <int>     <dbl>
#>  1     0       113 116.640  
#>  2     1       236 227.869  
#>  3     2       230 239.168  
#>  4     3       200 181.679  
#>  5     4        94 113.432  
#>  6     5        68  62.4881 
#>  7     6        27  31.6795 
#>  8     7        22  15.1323 
#>  9     8         4   6.88637
#> 10     9         3   2.99628
#> # i 11 more rows
…
