…
## Value

A data frame (tibble), which is of class `"smooth_estimates"`.

## Examples

``` r
load_mgcv()
dat <- data_sim("eg1", n = 400, dist = "normal", scale = 2, seed = 2)
m1 <- gam(y ~ s(x0) + s(x1) + s(x2) + s(x3), data = dat, method = "REML")

## evaluate all smooths
smooth_estimates(m1)
#> # A tibble: 400 x 9
#>    .smooth .type .by   .estimate      .se         x0    x1    x2    x3
#>    <chr>   <chr> <chr>     <dbl>    <dbl>      <dbl> <dbl> <dbl> <dbl>
#>  1 s(x0)   TPRS  NA    -0.966542 0.316118 0.00710904    NA    NA    NA
#>  2 s(x0)   TPRS  NA    -0.925391 0.297170 0.0171157     NA    NA    NA
#>  3 s(x0)   TPRS  NA    -0.884233 0.279256 0.0271224     NA    NA    NA
#>  4 s(x0)   TPRS  NA    -0.843050 0.262594 0.0371291     NA    NA    NA
#>  5 s(x0)   TPRS  NA    -0.801824 0.247376 0.0471358     NA    NA    NA
#>  6 s(x0)   TPRS  NA    -0.760536 0.233728 0.0571425     NA    NA    NA
#>  7 s(x0)   TPRS  NA    -0.719175 0.221701 0.0671492     NA    NA    NA
#>  8 s(x0)   TPRS  NA    -0.677736 0.211261 0.0771559     NA    NA    NA
#>  9 s(x0)   TPRS  NA    -0.636220 0.202303 0.0871626     NA    NA    NA
#> 10 s(x0)   TPRS  NA    -0.594641 0.194685 0.0971693     NA    NA    NA
#> # i 390 more rows

## or selected smooths
smooth_estimates(m1, select = c("s(x0)", "s(x1)"))
#> # A tibble: 200 x 7
#>    .smooth .type .by   .estimate      .se         x0    x1
#>    <chr>   <chr> <chr>     <dbl>    <dbl>      <dbl> <dbl>
#>  1 s(x0)   TPRS  NA    -0.966542 0.316118 0.00710904    NA
#>  2 s(x0)   TPRS  NA    -0.925391 0.297170 0.0171157     NA
#>  3 s(x0)   TPRS  NA    -0.884233 0.279256 0.0271224     NA
#>  4 s(x0)   TPRS  NA    -0.843050 0.262594 0.0371291     NA
#>  5 s(x0)   TPRS  NA    -0.801824 0.247376 0.0471358     NA
#>  6 s(x0)   TPRS  NA    -0.760536 0.233728 0.0571425     NA
#>  7 s(x0)   TPRS  NA    -0.719175 0.221701 0.0671492     NA
#>  8 s(x0)   TPRS  NA    -0.677736 0.211261 0.0771559     NA
#>  9 s(x0)   TPRS  NA    -0.636220 0.202303 0.0871626     NA
#> 10 s(x0)   TPRS  NA    -0.594641 0.194685 0.0971693     NA
#> # i 190 more rows

# parallel processing of smooths
if (requireNamespace("mirai") && requireNamespace("carrier")) {
  library("mirai")
  daemons(2)                          # only low for CRAN requirements
  smooth_estimates(m1)
}
#> Loading required namespace: carrier
#> # A tibble: 400 x 9
#>    .smooth .type .by   .estimate      .se         x0    x1    x2    x3
#>    <chr>   <chr> <chr>     <dbl>    <dbl>      <dbl> <dbl> <dbl> <dbl>
#>  1 s(x0)   TPRS  NA    -0.966542 0.316118 0.00710904    NA    NA    NA
#>  2 s(x0)   TPRS  NA    -0.925391 0.297170 0.0171157     NA    NA    NA
#>  3 s(x0)   TPRS  NA    -0.884233 0.279256 0.0271224     NA    NA    NA
#>  4 s(x0)   TPRS  NA    -0.843050 0.262594 0.0371291     NA    NA    NA
#>  5 s(x0)   TPRS  NA    -0.801824 0.247376 0.0471358     NA    NA    NA
#>  6 s(x0)   TPRS  NA    -0.760536 0.233728 0.0571425     NA    NA    NA
#>  7 s(x0)   TPRS  NA    -0.719175 0.221701 0.0671492     NA    NA    NA
#>  8 s(x0)   TPRS  NA    -0.677736 0.211261 0.0771559     NA    NA    NA
#>  9 s(x0)   TPRS  NA    -0.636220 0.202303 0.0871626     NA    NA    NA
#> 10 s(x0)   TPRS  NA    -0.594641 0.194685 0.0971693     NA    NA    NA
#> # i 390 more rows
```
