…
  character; the order in which the terms in the smooth should be
  processed. Only useful for tensor products with at least one 2d
  marginal smooth.

## Examples

``` r
load_mgcv()
df <- data_sim("eg1", seed = 42)
m <- bam(y ~ s(x0) + s(x1) + s(x2) + s(x3), data = df)

# generate data over range of x1 for smooth s(x1)
smooth_data(m, id = 2)
#> # A tibble: 100 x 1
#>           x1
#>        <dbl>
#>  1 0.0004050
#>  2 0.01046  
#>  3 0.02052  
#>  4 0.03057  
#>  5 0.04063  
#>  6 0.05069  
#>  7 0.06074  
#>  8 0.07080  
#>  9 0.08086  
#> 10 0.09091  
#> # i 90 more rows

# generate data over range of x1 for smooth s(x1), with typical value for
# other covariates in the model
smooth_data(m, id = 2, include_all = TRUE)
#> # A tibble: 100 x 4
#>           x1     x0     x2     x3
#>        <dbl>  <dbl>  <dbl>  <dbl>
#>  1 0.0004050 0.4883 0.4708 0.4879
#>  2 0.01046   0.4883 0.4708 0.4879
#>  3 0.02052   0.4883 0.4708 0.4879
#>  4 0.03057   0.4883 0.4708 0.4879
#>  5 0.04063   0.4883 0.4708 0.4879
#>  6 0.05069   0.4883 0.4708 0.4879
#>  7 0.06074   0.4883 0.4708 0.4879
#>  8 0.07080   0.4883 0.4708 0.4879
#>  9 0.08086   0.4883 0.4708 0.4879
#> 10 0.09091   0.4883 0.4708 0.4879
#> # i 90 more rows
```
