# derivative_samples works for a simple GAM

    Code
      print(sm)
    Output
      # A tibble: 3,000 x 5
          .row .focal .draw .derivative    x0
         <int> <chr>  <int>       <dbl> <dbl>
       1     1 x0         1       -7.88 0.786
       2     2 x0         1        1.41 0.252
       3     3 x0         1       -3.64 0.699
       4     4 x0         1        4.07 0.184
       5     5 x0         1      -10.6  0.960
       6     6 x0         1       -9.68 0.919
       7     7 x0         1        9.37 0.102
       8     8 x0         1        4.91 0.172
       9     9 x0         1      -10.8  0.986
      10    10 x0         1       -8.28 0.849
      # i 2,990 more rows
