# posterior sampling funs work with offsets in formula issue 233

    Code
      print(fs)
    Output
      # A tibble: 500 x 3
           row  draw fitted
         <int> <int>  <dbl>
       1     1     1   1.91
       2     2     1   1.91
       3     3     1   1.91
       4     4     1   1.91
       5     5     1   1.91
       6     6     1   1.90
       7     7     1   1.91
       8     8     1   1.91
       9     9     1   1.91
      10    10     1   1.91
      # i 490 more rows
