Data slices • gratia
…
We might want to compare model fitted values for the treatment for
each of the types (origins), ignoring the random effect component. For
this we want to evaluate the model at a range of values of covariate
conc for some combinations of the other factors. This is a
data slice through the covariate space, which we can create using
data_slice(). To create a data slice for conc
for the Quebec type in the
chilled treatment we would use

ds1 <- data_slice(m_plant, conc = evenly(conc, n = 100),
    type = level(type, "Quebec"), treatment = level(treatment, "chilled"))
ds1
#> # A tibble: 100 × 5
#>     conc type   treatment tt                plant
#>    <dbl> <fct>  <fct>     <fct>             <fct>
#>  1   95  Quebec chilled   nonchilled:Quebec Qn1  
#>  2  104. Quebec chilled   nonchilled:Quebec Qn1  
#>  3  113. Quebec chilled   nonchilled:Quebec Qn1  
#>  4  122. Quebec chilled   nonchilled:Quebec Qn1  
#>  5  132. Quebec chilled   nonchilled:Quebec Qn1  
#>  6  141. Quebec chilled   nonchilled:Quebec Qn1  
#>  7  150. Quebec chilled   nonchilled:Quebec Qn1  
#>  8  159. Quebec chilled   nonchilled:Quebec Qn1  
#>  9  168. Quebec chilled   nonchilled:Quebec Qn1  
#> 10  177. Quebec chilled   nonchilled:Quebec Qn1  
#> # ℹ 90 more rows

Notice how data_slice() has filled in something for the
remaining covariates that we didn’t mention? In this case,
data_slice() doesn’t know how tt was created,
so it has chosen the modal level for the tt factor, which
is not the correct choice in this case. Instead, we need to specify the
correct level explicitly for tt

ds1 <- data_slice(m_plant, conc = evenly(conc, n = 100),
    treatment = level(treatment, "chilled"), type = level(type, "Quebec"),
    tt = level(tt, "chilled:Quebec"))
ds1
#> # A tibble: 100 × 5
#>     conc treatment type   tt             plant
#>    <dbl> <fct>     <fct>  <fct>          <fct>
#>  1   95  chilled   Quebec chilled:Quebec Qn1  
#>  2  104. chilled   Quebec chilled:Quebec Qn1  
#>  3  113. chilled   Quebec chilled:Quebec Qn1  
#>  4  122. chilled   Quebec chilled:Quebec Qn1  
#>  5  132. chilled   Quebec chilled:Quebec Qn1  
#>  6  141. chilled   Quebec chilled:Quebec Qn1  
#>  7  150. chilled   Quebec chilled:Quebec Qn1  
#>  8  159. chilled   Quebec chilled:Quebec Qn1  
#>  9  168. chilled   Quebec chilled:Quebec Qn1  
#> 10  177. chilled   Quebec chilled:Quebec Qn1  
#> # ℹ 90 more rows

Having created the data slice, we can predict from the model using
the combination of covariate values specified in our slice. We could use
predict.gam() for this, but the
fitted_values() function in {gratia} is easier to use,
especially for non-Gaussian models

fv1 <- fitted_values(m_plant, data = ds1, scale = "response", exclude = "s(plant)")
fv1
#> # A tibble: 100 × 10
#>     .row  conc treatment type   tt       plant .fitted   .se .lower_ci .upper_ci
#>    <int> <dbl> <fct>     <fct>  <fct>    <fct>   <dbl> <dbl>     <dbl>     <dbl>
#>  1     1   95  chilled   Quebec chilled… Qn1      12.9  1.64      9.66      16.1
#>  2     2  104. chilled   Quebec chilled… Qn1      14.4  1.57     11.3       17.4
#>  3     3  113. chilled   Quebec chilled… Qn1      15.8  1.52     12.9       18.8
#>  4     4  122. chilled   Quebec chilled… Qn1      17.3  1.48     14.4       20.2
#>  5     5  132. chilled   Quebec chilled… Qn1      18.7  1.46     15.9       21.6
#>  6     6  141. chilled   Quebec chilled… Qn1      20.1  1.45     17.3       23.0
#>  7     7  150. chilled   Quebec chilled… Qn1      21.5  1.45     18.7       24.4
#>  8     8  159. chilled   Quebec chilled… Qn1      22.8  1.45     20.0       25.7
#>  9     9  168. chilled   Quebec chilled… Qn1      24.1  1.47     21.3       27.0
#> 10    10  177. chilled   Quebec chilled… Qn1      25.4  1.48     22.5       28.3
#> # ℹ 90 more rows
…
Next, let’s compare the fitted effects of the treatment in the
Mississippi origin plants

ds2 <- data_slice(m_plant, conc = evenly(conc, n = 100),
    treatment = evenly(treatment), type = level(type, "Mississippi")) |>
    mutate(tt = fct_cross(treatment, type, keep_empty = TRUE))
ds2
#> # A tibble: 200 × 5
#>     conc treatment  type        tt                     plant
#>    <dbl> <fct>      <fct>       <fct>                  <fct>
#>  1   95  nonchilled Mississippi nonchilled:Mississippi Qn1  
#>  2   95  chilled    Mississippi chilled:Mississippi    Qn1  
#>  3  104. nonchilled Mississippi nonchilled:Mississippi Qn1  
#>  4  104. chilled    Mississippi chilled:Mississippi    Qn1  
#>  5  113. nonchilled Mississippi nonchilled:Mississippi Qn1  
#>  6  113. chilled    Mississippi chilled:Mississippi    Qn1  
#>  7  122. nonchilled Mississippi nonchilled:Mississippi Qn1  
#>  8  122. chilled    Mississippi chilled:Mississippi    Qn1  
#>  9  132. nonchilled Mississippi nonchilled:Mississippi Qn1  
#> 10  132. chilled    Mississippi chilled:Mississippi    Qn1  
#> # ℹ 190 more rows
…
ds3 <- data_slice(m_biv,
                  x = evenly(x, n = 100),
                  z = quantile(z, probs = 0.25))

z_val <- with(ds3, round(quantile(z, probs = 0.25),2))
ylab <- bquote(hat(f)(x, .(z_val)))

Then we evaluate the smooth at the desired values and add a
confidence interval

sm <- smooth_estimates(m_biv, smooth = "te(x,z)", data = ds3) |>
  add_confint()
sm
#> # A tibble: 100 × 9
#>    .smooth .type        .by   .estimate    .se       x     z .lower_ci .upper_ci
#>    <chr>   <chr>        <chr>     <dbl>  <dbl>   <dbl> <dbl>     <dbl>     <dbl>
#>  1 te(x,z) Tensor prod… NA        0.103 0.0583 6.63e-4 0.245   -0.0107     0.218
#>  2 te(x,z) Tensor prod… NA        0.122 0.0548 1.08e-2 0.245    0.0148     0.230
#>  3 te(x,z) Tensor prod… NA        0.141 0.0514 2.08e-2 0.245    0.0400     0.242
#>  4 te(x,z) Tensor prod… NA        0.159 0.0482 3.09e-2 0.245    0.0648     0.254
#>  5 te(x,z) Tensor prod… NA        0.177 0.0451 4.10e-2 0.245    0.0890     0.266
#>  6 te(x,z) Tensor prod… NA        0.195 0.0422 5.11e-2 0.245    0.113      0.278
#>  7 te(x,z) Tensor prod… NA        0.213 0.0396 6.12e-2 0.245    0.135      0.291
#>  8 te(x,z) Tensor prod… NA        0.230 0.0372 7.13e-2 0.245    0.157      0.303
#>  9 te(x,z) Tensor prod… NA        0.247 0.0351 8.14e-2 0.245    0.178      0.316
#> 10 te(x,z) Tensor prod… NA        0.263 0.0333 9.14e-2 0.245    0.198      0.328
#> # ℹ 90 more rows
…
