Posterior Simulation • gratia
…
That step isn’t required in order to do posterior simulation with
gratia, but we’ll use the fitted values later to show the model
estimated values and their uncertainty in contrast to the prediction
interval.

We use posterior_samples() to generate new response data
for each of the new x values in ds and use a
join to add the prediction data to each draw

ps <- posterior_samples(m, n = 10000, data = ds, seed = 24,
  unconditional  = TRUE) |>
  left_join(ds, by = join_by(.row == .row))
ps
#> # A tibble: 2,000,000 × 4
#>     .row .draw .response       x
#>    <int> <int>     <dbl>   <dbl>
#>  1     1     1   -1.34   0.00129
#>  2     2     1   -0.0495 0.00629
#>  3     3     1    0.0308 0.0113 
#>  4     4     1   -0.783  0.0163 
#>  5     5     1    0.861  0.0213 
#>  6     6     1    0.475  0.0263 
#>  7     7     1    0.858  0.0313 
#>  8     8     1    0.143  0.0363 
#>  9     9     1   -0.0344 0.0413 
#> 10    10     1    1.04   0.0463 
#> # ℹ 1,999,990 more rows
…
p_int <- ps |>
  group_by(.row) |>
  reframe(quantile_fun(.response)) |>
  pivot_wider(id_cols = .row, names_from = .q, values_from = .value,
    names_prefix = ".q") |>
  left_join(ds, by = join_by(.row == .row))
p_int
#> # A tibble: 200 × 5
#>     .row  .q2.5    .q50 .q97.5       x
#>    <int>  <dbl>   <dbl>  <dbl>   <dbl>
#>  1     1 -2.84  -0.847    1.25 0.00129
#>  2     2 -2.70  -0.651    1.41 0.00629
#>  3     3 -2.50  -0.434    1.62 0.0113 
#>  4     4 -2.24  -0.207    1.83 0.0163 
#>  5     5 -2.04  -0.0197   2.01 0.0213 
#>  6     6 -1.81   0.191    2.25 0.0263 
#>  7     7 -1.59   0.391    2.41 0.0313 
#>  8     8 -1.38   0.594    2.60 0.0363 
#>  9     9 -1.20   0.831    2.84 0.0413 
#> 10    10 -0.935  1.06     3.04 0.0463 
#> # ℹ 190 more rows
…
