Point-wise and simultaneous confidence intervals for smooths — confint.gam • gratia
…
    Examples

load_mgcv()
# \dontshow{
set.seed(2)
op <- options(digits = 4, cli.unicode = FALSE)
# }
dat <- gamSim(1, n = 500, dist = "normal", scale = 2)
#> Gu & Wahba 4 term additive model
mod <- gam(y ~ s(x0) + s(x1) + s(x2) + s(x3), data = dat, method = "REML")

## point-wise interval
ci <- confint(mod, parm = "x1", type = "confidence")
ci
#> # A tibble: 200 x 8
#>    smooth by_variable      x1   est    se  crit lower upper
#>    <chr>  <fct>         <dbl> <dbl> <dbl> <dbl> <dbl> <dbl>
#>  1 s(x1)  NA          0.00251 -2.04 0.296  1.96 -2.62 -1.46
#>  2 s(x1)  NA          0.00752 -2.04 0.287  1.96 -2.60 -1.47
#>  3 s(x1)  NA          0.0125  -2.03 0.279  1.96 -2.58 -1.49
#>  4 s(x1)  NA          0.0175  -2.03 0.270  1.96 -2.56 -1.50
#>  5 s(x1)  NA          0.0225  -2.02 0.262  1.96 -2.54 -1.51
#>  6 s(x1)  NA          0.0276  -2.02 0.254  1.96 -2.52 -1.52
#>  7 s(x1)  NA          0.0326  -2.01 0.246  1.96 -2.50 -1.53
#>  8 s(x1)  NA          0.0376  -2.01 0.239  1.96 -2.48 -1.54
#>  9 s(x1)  NA          0.0426  -2.01 0.232  1.96 -2.46 -1.55
#> 10 s(x1)  NA          0.0476  -2.00 0.226  1.96 -2.44 -1.56
#> # ... with 190 more rows

## simultaneous interval for smooth term of x1
# \dontshow{
set.seed(42)
# }
si <- confint(mod, parm = "x1", type = "simultaneous", nsim = 100)
si
#> # A tibble: 200 x 8
#>    smooth by_variable      x1   est    se  crit lower upper
#>    <chr>  <fct>         <dbl> <dbl> <dbl> <dbl> <dbl> <dbl>
#>  1 s(x1)  NA          0.00251 -2.04 0.296  2.49 -2.78 -1.30
#>  2 s(x1)  NA          0.00752 -2.04 0.287  2.49 -2.75 -1.32
#>  3 s(x1)  NA          0.0125  -2.03 0.279  2.49 -2.73 -1.34
#>  4 s(x1)  NA          0.0175  -2.03 0.270  2.49 -2.70 -1.35
#>  5 s(x1)  NA          0.0225  -2.02 0.262  2.49 -2.68 -1.37
#>  6 s(x1)  NA          0.0276  -2.02 0.254  2.49 -2.65 -1.39
#>  7 s(x1)  NA          0.0326  -2.01 0.246  2.49 -2.63 -1.40
#>  8 s(x1)  NA          0.0376  -2.01 0.239  2.49 -2.61 -1.41
#>  9 s(x1)  NA          0.0426  -2.01 0.232  2.49 -2.58 -1.43
#> 10 s(x1)  NA          0.0476  -2.00 0.226  2.49 -2.56 -1.44
#> # ... with 190 more rows
…
