Derivatives of estimated smooths via finite differences — derivatives • gratia
…
    Gavin L. Simpson

    Examples

load_mgcv()
# \dontshow{
set.seed(42)
op <- options(cli.unicode = FALSE)
# }
dat <- gamSim(1, n = 400, dist = "normal", scale = 2, verbose = FALSE)
mod <- gam(y ~ s(x0) + s(x1) + s(x2) + s(x3), data = dat, method = "REML")

## first derivatives of all smooths using central finite differences
derivatives(mod, type = "central")
#> # A tibble: 800 x 8
#>    smooth var       data derivative    se  crit lower upper
#>    <chr>  <chr>    <dbl>      <dbl> <dbl> <dbl> <dbl> <dbl>
#>  1 s(x0)  x0    0.000239       7.41  3.33  1.96 0.874  13.9
#>  2 s(x0)  x0    0.00525        7.41  3.33  1.96 0.875  13.9
#>  3 s(x0)  x0    0.0103         7.40  3.33  1.96 0.884  13.9
#>  4 s(x0)  x0    0.0153         7.40  3.31  1.96 0.902  13.9
#>  5 s(x0)  x0    0.0203         7.39  3.30  1.96 0.929  13.8
#>  6 s(x0)  x0    0.0253         7.38  3.27  1.96 0.965  13.8
#>  7 s(x0)  x0    0.0303         7.36  3.24  1.96 1.01   13.7
#>  8 s(x0)  x0    0.0353         7.34  3.20  1.96 1.07   13.6
#>  9 s(x0)  x0    0.0403         7.32  3.15  1.96 1.14   13.5
#> 10 s(x0)  x0    0.0453         7.29  3.10  1.96 1.21   13.4
#> # ... with 790 more rows

## derivatives for a selected smooth
derivatives(mod, type = "central", term = "s(x1)")
#> # A tibble: 200 x 8
#>    smooth var       data derivative    se  crit lower upper
#>    <chr>  <chr>    <dbl>      <dbl> <dbl> <dbl> <dbl> <dbl>
#>  1 s(x1)  x1    0.000405     -0.907  3.12  1.96 -7.02  5.20
#>  2 s(x1)  x1    0.00541      -0.907  3.12  1.96 -7.02  5.20
#>  3 s(x1)  x1    0.0104       -0.906  3.11  1.96 -7.01  5.20
#>  4 s(x1)  x1    0.0154       -0.903  3.11  1.96 -6.99  5.19
#>  5 s(x1)  x1    0.0204       -0.898  3.10  1.96 -6.97  5.17
#>  6 s(x1)  x1    0.0254       -0.891  3.08  1.96 -6.93  5.15
#>  7 s(x1)  x1    0.0304       -0.880  3.06  1.96 -6.88  5.12
#>  8 s(x1)  x1    0.0354       -0.867  3.04  1.96 -6.82  5.08
#>  9 s(x1)  x1    0.0404       -0.850  3.00  1.96 -6.74  5.04
#> 10 s(x1)  x1    0.0454       -0.829  2.96  1.96 -6.64  4.98
#> # ... with 190 more rows
## or via a partial match
derivatives(mod, type = "central", term = "x1", partial_match = TRUE)
#> # A tibble: 200 x 8
#>    smooth var       data derivative    se  crit lower upper
#>    <chr>  <chr>    <dbl>      <dbl> <dbl> <dbl> <dbl> <dbl>
#>  1 s(x1)  x1    0.000405     -0.907  3.12  1.96 -7.02  5.20
#>  2 s(x1)  x1    0.00541      -0.907  3.12  1.96 -7.02  5.20
#>  3 s(x1)  x1    0.0104       -0.906  3.11  1.96 -7.01  5.20
#>  4 s(x1)  x1    0.0154       -0.903  3.11  1.96 -6.99  5.19
#>  5 s(x1)  x1    0.0204       -0.898  3.10  1.96 -6.97  5.17
#>  6 s(x1)  x1    0.0254       -0.891  3.08  1.96 -6.93  5.15
#>  7 s(x1)  x1    0.0304       -0.880  3.06  1.96 -6.88  5.12
#>  8 s(x1)  x1    0.0354       -0.867  3.04  1.96 -6.82  5.08
#>  9 s(x1)  x1    0.0404       -0.850  3.00  1.96 -6.74  5.04
#> 10 s(x1)  x1    0.0454       -0.829  2.96  1.96 -6.64  4.98
#> # ... with 190 more rows
…
