Draw fitted values from the posterior distribution — fitted_samples • gratia
…
    Gavin L. Simpson

    Examples

load_mgcv()
# \dontshow{
op <- options(pillar.sigfig = 3, cli.unicode = FALSE)
# }
dat <- data_sim("eg1", n = 1000, dist = "normal", scale = 2, seed = 2)
m1 <- gam(y ~ s(x0) + s(x1) + s(x2) + s(x3), data = dat, method = "REML")

fs <- fitted_samples(m1, n = 5, seed = 42)
# \donttest{
fs
#> # A tibble: 5,000 x 3
#>      row  draw fitted
#>    <int> <int>  <dbl>
#>  1     1     1   6.34
#>  2     2     1   5.08
#>  3     3     1   6.84
#>  4     4     1   7.71
#>  5     5     1   9.23
#>  6     6     1   8.03
#>  7     7     1   6.19
#>  8     8     1   7.28
#>  9     9     1  14.0 
#> 10    10     1  12.7 
#> # ... with 4,990 more rows
…
