Extract and tidy penalty matrices — penalty • gratia
…
    Author

    Gavin L. Simpson

    Examples

# \dontshow{
op <- options(cli.unicode = FALSE, digits = 5)
# }
load_mgcv()
dat <- data_sim("eg4", n = 400, seed = 42)
m <- gam(y ~ s(x0) + s(x1) + s(x2, by = fac),
         data = dat, method = "REML")
penalty(m)
#> # A tibble: 405 x 6
#>    smooth type  penalty row   col   value
#>    <chr>  <chr> <chr>   <chr> <chr> <dbl>
#>  1 s(x0)  TPRS  s(x0)   F1    F1     9.81
#>  2 s(x0)  TPRS  s(x0)   F1    F2    -1.45
#>  3 s(x0)  TPRS  s(x0)   F1    F3    -5   
#>  4 s(x0)  TPRS  s(x0)   F1    F4    -1.34
#>  5 s(x0)  TPRS  s(x0)   F1    F5    -6.24
#>  6 s(x0)  TPRS  s(x0)   F1    F6     3.90
#>  7 s(x0)  TPRS  s(x0)   F1    F7    -7.74
#>  8 s(x0)  TPRS  s(x0)   F1    F8    -1.79
#>  9 s(x0)  TPRS  s(x0)   F1    F9     0   
#> 10 s(x0)  TPRS  s(x0)   F2    F1    -1.45
#> # ... with 395 more rows

# for a specific smooth
penalty(m, smooth = "s(x2):fac1")
#> # A tibble: 81 x 6
#>    smooth     type  penalty    row   col   value
#>    <chr>      <chr> <chr>      <chr> <chr> <dbl>
#>  1 s(x2):fac1 TPRS  s(x2):fac1 F1    F1     9.94
#>  2 s(x2):fac1 TPRS  s(x2):fac1 F1    F2     1.40
#>  3 s(x2):fac1 TPRS  s(x2):fac1 F1    F3     4.78
#>  4 s(x2):fac1 TPRS  s(x2):fac1 F1    F4     1.13
#>  5 s(x2):fac1 TPRS  s(x2):fac1 F1    F5     5.84
#>  6 s(x2):fac1 TPRS  s(x2):fac1 F1    F6    -4.06
#>  7 s(x2):fac1 TPRS  s(x2):fac1 F1    F7     8.60
#>  8 s(x2):fac1 TPRS  s(x2):fac1 F1    F8     1.44
#>  9 s(x2):fac1 TPRS  s(x2):fac1 F1    F9     0   
#> 10 s(x2):fac1 TPRS  s(x2):fac1 F2    F1     1.40
#> # ... with 71 more rows
…
