Draw predicted values from the posterior distribution — fitted_samples.gam • gratia
…
response (numeric) the predicted response for the indicated row of
newdata.

    Examples

suppressPackageStartupMessages(library("mgcv"))
set.seed(2)
dat <- gamSim(1, n = 400, dist = "normal", scale = 2)
#> Gu & Wahba 4 term additive model
m1 <- gam(y ~ s(x0) + s(x1) + s(x2) + s(x3), data = dat, method = "REML")

fitted_samples(m1, n = 5, seed = 42)
#> # A tibble: 2,000 x 3
#>      row  draw fitted
#>    <int> <int>  <dbl>
#>  1     1     1   8.72
#>  2     2     1   7.79
#>  3     3     1   2.94
#>  4     4     1  10.5 
#>  5     5     1  13.9 
#>  6     6     1   5.89
#>  7     7     1  12.0 
#>  8     8     1   6.14
#>  9     9     1   4.44
#> 10    10     1  15.2 
#> # … with 1,990 more rows
suppressPackageStartupMessages(library("mgcv"))
set.seed(2)
dat <- gamSim(1, n = 400, dist = "normal", scale = 2)
#> Gu & Wahba 4 term additive model
m1 <- gam(y ~ s(x0) + s(x1) + s(x2) + s(x3), data = dat, method = "REML")

predicted_samples(m1, n = 5, seed = 42)
#> # A tibble: 2,000 x 3
#>      row  draw response
#>    <int> <int>    <dbl>
#>  1     1     1    11.4 
#>  2     2     1     6.51
#>  3     3     1     3.84
#>  4     4     1    12.4 
#>  5     5     1    14.9 
#>  6     6     1     5.92
#>  7     7     1    15.5 
#>  8     8     1     6.07
#>  9     9     1     8.20
#> 10    10     1    15.4 
#> # … with 1,990 more rows
…
