Posterior draws for individual smooths — smooth_samples • gratia
…
    Author

    Gavin L. Simpson

    Examples

load_mgcv()
op <- options(cli.unicode = FALSE)
dat <- data_sim("eg1", n = 1000, seed = 2)
m1 <- gam(y ~ s(x0) + s(x1) + s(x2) + s(x3), data = dat, method = "REML")

smooth_samples(m1, term = "s(x0)", n = 5, seed = 42)
#> # A tibble: 1,000 x 7
#>    smooth term  by_variable      .x1   row  draw  value
#>    <chr>  <chr> <chr>          <dbl> <int> <int>  <dbl>
#>  1 s(x0)  s(x0) NA          0.000663     1     1 -0.961
#>  2 s(x0)  s(x0) NA          0.00568      2     1 -0.933
#>  3 s(x0)  s(x0) NA          0.0107       3     1 -0.906
#>  4 s(x0)  s(x0) NA          0.0157       4     1 -0.878
#>  5 s(x0)  s(x0) NA          0.0207       5     1 -0.850
#>  6 s(x0)  s(x0) NA          0.0258       6     1 -0.822
#>  7 s(x0)  s(x0) NA          0.0308       7     1 -0.795
#>  8 s(x0)  s(x0) NA          0.0358       8     1 -0.768
#>  9 s(x0)  s(x0) NA          0.0408       9     1 -0.740
#> 10 s(x0)  s(x0) NA          0.0458      10     1 -0.713
#> # ... with 990 more rows
…
