Customizing plots • gratia
…
The main thing we need is to evaluate the smooths at values of their
covariates. This is done using smooth_estimates(). We also
need to add a credible interval to the evaluations, which can be done
tidyverse-style via add_confint()

# evaluate the smooths
sm <- smooth_estimates(m) |>
  add_confint()
sm
#> # A tibble: 400 × 11
#>    .smooth .type .by   .estimate   .se     x0    x1    x2    x3 .lower_ci
#>    <chr>   <chr> <chr>     <dbl> <dbl>  <dbl> <dbl> <dbl> <dbl>     <dbl>
#>  1 s(x0)   TPRS  NA       -0.929 0.422 0.0131    NA    NA    NA    -1.76 
#>  2 s(x0)   TPRS  NA       -0.881 0.396 0.0230    NA    NA    NA    -1.66 
#>  3 s(x0)   TPRS  NA       -0.834 0.372 0.0329    NA    NA    NA    -1.56 
#>  4 s(x0)   TPRS  NA       -0.786 0.348 0.0429    NA    NA    NA    -1.47 
#>  5 s(x0)   TPRS  NA       -0.738 0.326 0.0528    NA    NA    NA    -1.38 
#>  6 s(x0)   TPRS  NA       -0.690 0.305 0.0627    NA    NA    NA    -1.29 
#>  7 s(x0)   TPRS  NA       -0.643 0.287 0.0727    NA    NA    NA    -1.20 
#>  8 s(x0)   TPRS  NA       -0.595 0.270 0.0826    NA    NA    NA    -1.12 
#>  9 s(x0)   TPRS  NA       -0.548 0.255 0.0925    NA    NA    NA    -1.05 
#> 10 s(x0)   TPRS  NA       -0.501 0.242 0.102     NA    NA    NA    -0.975
#> # ℹ 390 more rows
#> # ℹ 1 more variable: .upper_ci <dbl>
…
