…
``` r
ds1 <- data_slice(m_plant,
  conc = evenly(conc, n = 100),
  type = level(type, "Quebec"), treatment = level(treatment, "chilled")
)
ds1
#> # A tibble: 100 × 5
#>     conc type   treatment tt                plant
#>    <dbl> <fct>  <fct>     <fct>             <fct>
#>  1   95  Quebec chilled   nonchilled:Quebec Qn1  
#>  2  104. Quebec chilled   nonchilled:Quebec Qn1  
#>  3  113. Quebec chilled   nonchilled:Quebec Qn1  
#>  4  122. Quebec chilled   nonchilled:Quebec Qn1  
#>  5  132. Quebec chilled   nonchilled:Quebec Qn1  
#>  6  141. Quebec chilled   nonchilled:Quebec Qn1  
#>  7  150. Quebec chilled   nonchilled:Quebec Qn1  
#>  8  159. Quebec chilled   nonchilled:Quebec Qn1  
#>  9  168. Quebec chilled   nonchilled:Quebec Qn1  
#> 10  177. Quebec chilled   nonchilled:Quebec Qn1  
#> # ℹ 90 more rows
```
…
``` r
ds1 <- data_slice(m_plant,
  conc = evenly(conc, n = 100),
  treatment = level(treatment, "chilled"), type = level(type, "Quebec"),
  tt = level(tt, "chilled:Quebec")
)
ds1
#> # A tibble: 100 × 5
#>     conc treatment type   tt             plant
#>    <dbl> <fct>     <fct>  <fct>          <fct>
#>  1   95  chilled   Quebec chilled:Quebec Qn1  
#>  2  104. chilled   Quebec chilled:Quebec Qn1  
#>  3  113. chilled   Quebec chilled:Quebec Qn1  
#>  4  122. chilled   Quebec chilled:Quebec Qn1  
#>  5  132. chilled   Quebec chilled:Quebec Qn1  
#>  6  141. chilled   Quebec chilled:Quebec Qn1  
#>  7  150. chilled   Quebec chilled:Quebec Qn1  
#>  8  159. chilled   Quebec chilled:Quebec Qn1  
#>  9  168. chilled   Quebec chilled:Quebec Qn1  
#> 10  177. chilled   Quebec chilled:Quebec Qn1  
#> # ℹ 90 more rows
```

Having created the data slice, we can predict from the model using the
combination of covariate values specified in our slice. We could use
[`predict.gam()`](https://rdrr.io/pkg/mgcv/man/predict.gam.html) for
this, but the
[`fitted_values()`](https://gavinsimpson.github.io/gratia/reference/fitted_values.md)
function in {gratia} is easier to use, especially for non-Gaussian
models

``` r
fv1 <- fitted_values(m_plant, data = ds1, scale = "response", exclude = "s(plant)")
fv1
#> # A tibble: 100 × 10
#>     .row  conc treatment type   tt      plant .fitted    .se .lower_ci .upper_ci
#>    <int> <dbl> <fct>     <fct>  <fct>   <fct>   <dbl>  <dbl>     <dbl>     <dbl>
#>  1     1   95  chilled   Quebec chille… Qn1      13.0 0.0783      11.2      15.2
#>  2     2  104. chilled   Quebec chille… Qn1      14.1 0.0757      12.1      16.3
#>  3     3  113. chilled   Quebec chille… Qn1      15.2 0.0737      13.1      17.5
#>  4     4  122. chilled   Quebec chille… Qn1      16.3 0.0722      14.2      18.8
#>  5     5  132. chilled   Quebec chille… Qn1      17.6 0.0714      15.3      20.2
#>  6     6  141. chilled   Quebec chille… Qn1      18.9 0.0711      16.4      21.7
#>  7     7  150. chilled   Quebec chille… Qn1      20.2 0.0712      17.6      23.3
#>  8     8  159. chilled   Quebec chille… Qn1      21.6 0.0716      18.8      24.9
#>  9     9  168. chilled   Quebec chille… Qn1      23.0 0.0721      20.0      26.5
#> 10    10  177. chilled   Quebec chille… Qn1      24.4 0.0726      21.2      28.1
#> # ℹ 90 more rows
```
…
Next, let’s compare the fitted effects of the treatment in the
Mississippi origin plants

``` r
ds2 <- data_slice(m_plant,
  conc = evenly(conc, n = 100),
  treatment = evenly(treatment), type = level(type, "Mississippi")
) |>
  mutate(tt = fct_cross(treatment, type, keep_empty = TRUE))
ds2
#> # A tibble: 200 × 5
#>     conc treatment  type        tt                     plant
#>    <dbl> <fct>      <fct>       <fct>                  <fct>
#>  1   95  nonchilled Mississippi nonchilled:Mississippi Qn1  
#>  2   95  chilled    Mississippi chilled:Mississippi    Qn1  
#>  3  104. nonchilled Mississippi nonchilled:Mississippi Qn1  
#>  4  104. chilled    Mississippi chilled:Mississippi    Qn1  
#>  5  113. nonchilled Mississippi nonchilled:Mississippi Qn1  
#>  6  113. chilled    Mississippi chilled:Mississippi    Qn1  
#>  7  122. nonchilled Mississippi nonchilled:Mississippi Qn1  
#>  8  122. chilled    Mississippi chilled:Mississippi    Qn1  
#>  9  132. nonchilled Mississippi nonchilled:Mississippi Qn1  
#> 10  132. chilled    Mississippi chilled:Mississippi    Qn1  
#> # ℹ 190 more rows
```
…
z_val <- with(ds3, round(quantile(z, probs = 0.25), 2))
ylab <- bquote(hat(f)(x, .(z_val)))
```

Then we evaluate the smooth at the desired values and add a confidence
interval

``` r
sm <- smooth_estimates(m_biv, select = "te(x,z)", data = ds3) |>
  add_confint()
sm
#> # A tibble: 100 × 9
#>    .smooth .type        .by   .estimate    .se       x     z .lower_ci .upper_ci
#>    <chr>   <chr>        <chr>     <dbl>  <dbl>   <dbl> <dbl>     <dbl>     <dbl>
#>  1 te(x,z) Tensor prod… NA        0.103 0.0583 6.63e-4 0.245   -0.0107     0.218
#>  2 te(x,z) Tensor prod… NA        0.122 0.0548 1.08e-2 0.245    0.0148     0.230
#>  3 te(x,z) Tensor prod… NA        0.141 0.0514 2.08e-2 0.245    0.0400     0.242
#>  4 te(x,z) Tensor prod… NA        0.159 0.0482 3.09e-2 0.245    0.0648     0.254
#>  5 te(x,z) Tensor prod… NA        0.177 0.0451 4.10e-2 0.245    0.0890     0.266
#>  6 te(x,z) Tensor prod… NA        0.195 0.0422 5.11e-2 0.245    0.113      0.278
#>  7 te(x,z) Tensor prod… NA        0.213 0.0396 6.12e-2 0.245    0.135      0.291
#>  8 te(x,z) Tensor prod… NA        0.230 0.0372 7.13e-2 0.245    0.157      0.303
#>  9 te(x,z) Tensor prod… NA        0.247 0.0351 8.14e-2 0.245    0.178      0.316
#> 10 te(x,z) Tensor prod… NA        0.263 0.0333 9.14e-2 0.245    0.198      0.328
#> # ℹ 90 more rows
```
…
