…
gratia is a package to make working with generalized additive models
(GAMs) in R easier, including producing plots of estimated smooths using
the ggplot2 📦.

This introduction will cover some of the basic functionality of gratia
to get you started. We’ll work with some classic simulated data often
used to illustrate properties of GAMs

``` r
df <- data_sim("eg1", seed = 42)
df
#> # A tibble: 400 × 10
#>        y    x0     x1    x2    x3     f    f0    f1     f2    f3
#>    <dbl> <dbl>  <dbl> <dbl> <dbl> <dbl> <dbl> <dbl>  <dbl> <dbl>
#>  1  2.99 0.915 0.0227 0.909 0.402  1.62 0.529  1.05 0.0397     0
#>  2  4.70 0.937 0.513  0.900 0.432  3.25 0.393  2.79 0.0630     0
#>  3 13.9  0.286 0.631  0.192 0.664 13.5  1.57   3.53 8.41       0
#>  4  5.71 0.830 0.419  0.532 0.182  6.12 1.02   2.31 2.79       0
#>  5  7.63 0.642 0.879  0.522 0.838 10.4  1.80   5.80 2.76       0
#>  6  9.80 0.519 0.108  0.160 0.917 10.4  2.00   1.24 7.18       0
#>  7 10.4  0.737 0.980  0.520 0.798 11.3  1.47   7.10 2.75       0
#>  8 12.8  0.135 0.265  0.225 0.503 11.4  0.821  1.70 8.90       0
#>  9 13.8  0.657 0.0843 0.282 0.254 11.1  1.76   1.18 8.20       0
#> 10  7.51 0.705 0.386  0.504 0.667  6.50 1.60   2.16 2.74       0
#> # ℹ 390 more rows
```
…
The resulting plot is intended as reasonable overview of the estimated
model, but it offers limited option to modify the resulting plot. If you
want full control, you can obtain the data used to create the plot above
with
[`smooth_estimates()`](https://gavinsimpson.github.io/gratia/reference/smooth_estimates.md)

``` r
sm <- smooth_estimates(m)
sm
#> # A tibble: 400 × 9
#>    .smooth .type .by   .estimate   .se       x0    x1    x2    x3
#>    <chr>   <chr> <chr>     <dbl> <dbl>    <dbl> <dbl> <dbl> <dbl>
#>  1 s(x0)   TPRS  NA       -1.32  0.390 0.000239    NA    NA    NA
#>  2 s(x0)   TPRS  NA       -1.24  0.365 0.0103      NA    NA    NA
#>  3 s(x0)   TPRS  NA       -1.17  0.340 0.0204      NA    NA    NA
#>  4 s(x0)   TPRS  NA       -1.09  0.318 0.0304      NA    NA    NA
#>  5 s(x0)   TPRS  NA       -1.02  0.297 0.0405      NA    NA    NA
#>  6 s(x0)   TPRS  NA       -0.947 0.279 0.0506      NA    NA    NA
#>  7 s(x0)   TPRS  NA       -0.875 0.263 0.0606      NA    NA    NA
#>  8 s(x0)   TPRS  NA       -0.803 0.249 0.0707      NA    NA    NA
#>  9 s(x0)   TPRS  NA       -0.732 0.237 0.0807      NA    NA    NA
#> 10 s(x0)   TPRS  NA       -0.662 0.228 0.0908      NA    NA    NA
#> # ℹ 390 more rows
```
…
To evaluate only $f\left( x_{2} \right)$ use

``` r
sm <- smooth_estimates(m, smooth = "s(x2)")
#> Warning: The `smooth` argument of `smooth_estimates()` is deprecated as of gratia
#> 0.8.9.9.
#> ℹ Please use the `select` argument instead.
#> This warning is displayed once every 8 hours.
#> Call `lifecycle::last_lifecycle_warnings()` to see where this warning was
#> generated.
sm
#> # A tibble: 100 × 6
#>    .smooth .type .by   .estimate   .se      x2
#>    <chr>   <chr> <chr>     <dbl> <dbl>   <dbl>
#>  1 s(x2)   TPRS  NA      -4.47   0.476 0.00359
#>  2 s(x2)   TPRS  NA      -4.00   0.406 0.0136 
#>  3 s(x2)   TPRS  NA      -3.53   0.345 0.0237 
#>  4 s(x2)   TPRS  NA      -3.06   0.295 0.0338 
#>  5 s(x2)   TPRS  NA      -2.58   0.263 0.0438 
#>  6 s(x2)   TPRS  NA      -2.09   0.250 0.0539 
#>  7 s(x2)   TPRS  NA      -1.59   0.253 0.0639 
#>  8 s(x2)   TPRS  NA      -1.08   0.264 0.0740 
#>  9 s(x2)   TPRS  NA      -0.564  0.278 0.0841 
#> 10 s(x2)   TPRS  NA      -0.0364 0.289 0.0941 
#> # ℹ 90 more rows
```
…
