…
We use
[`posterior_samples()`](https://gavinsimpson.github.io/gratia/reference/posterior_samples.md)
to generate new response data for each of the new `x` values in `ds` and
use a join to add the prediction data to each draw

``` r
ps <- posterior_samples(m, n = 10000, data = ds, seed = 24,
  unconditional = TRUE) |>
  left_join(ds, by = join_by(.row == .row))
ps
#> # A tibble: 2,000,000 × 4
#>     .row .draw .response       x
#>    <int> <int>     <dbl>   <dbl>
#>  1     1     1  -1.30    0.00129
#>  2     2     1  -0.0136  0.00629
#>  3     3     1   0.0662  0.0113 
#>  4     4     1  -0.748   0.0163 
#>  5     5     1   0.896   0.0213 
#>  6     6     1   0.509   0.0263 
#>  7     7     1   0.891   0.0313 
#>  8     8     1   0.176   0.0363 
#>  9     9     1  -0.00336 0.0413 
#> 10    10     1   1.07    0.0463 
#> # ℹ 1,999,990 more rows
```
…
``` r
p_int <- ps |>
  group_by(.row) |>
  reframe(quantile_fun(.response)) |>
  pivot_wider(
    id_cols = .row, names_from = .q, values_from = .value,
    names_prefix = ".q"
  ) |>
  left_join(ds, by = join_by(.row == .row))
p_int
#> # A tibble: 200 × 5
#>     .row  .q2.5    .q50 .q97.5       x
#>    <int>  <dbl>   <dbl>  <dbl>   <dbl>
#>  1     1 -2.84  -0.844    1.24 0.00129
#>  2     2 -2.70  -0.647    1.40 0.00629
#>  3     3 -2.50  -0.434    1.62 0.0113 
#>  4     4 -2.24  -0.209    1.82 0.0163 
#>  5     5 -2.04  -0.0183   2.02 0.0213 
#>  6     6 -1.81   0.194    2.25 0.0263 
#>  7     7 -1.60   0.392    2.42 0.0313 
#>  8     8 -1.37   0.601    2.60 0.0363 
#>  9     9 -1.20   0.829    2.84 0.0413 
#> 10    10 -0.939  1.06     3.04 0.0463 
#> # ℹ 190 more rows
```
…
